-- Merging decision tree log ---
manifest
ADDED from /home/votarytech/AndroidStudioProjects/JioSample/app/src/main/AndroidManifest.xml:2:1-24:12
	package
		ADDED from /home/votarytech/AndroidStudioProjects/JioSample/app/src/main/AndroidManifest.xml:3:5-40
		INJECTED from /home/votarytech/AndroidStudioProjects/JioSample/app/src/main/AndroidManifest.xml
		INJECTED from /home/votarytech/AndroidStudioProjects/JioSample/app/src/main/AndroidManifest.xml
	android:versionName
		INJECTED from /home/votarytech/AndroidStudioProjects/JioSample/app/src/main/AndroidManifest.xml
		INJECTED from /home/votarytech/AndroidStudioProjects/JioSample/app/src/main/AndroidManifest.xml
	xmlns:android
		ADDED from /home/votarytech/AndroidStudioProjects/JioSample/app/src/main/AndroidManifest.xml:2:11-69
	android:versionCode
		INJECTED from /home/votarytech/AndroidStudioProjects/JioSample/app/src/main/AndroidManifest.xml
		INJECTED from /home/votarytech/AndroidStudioProjects/JioSample/app/src/main/AndroidManifest.xml
uses-permission#android.permission.INTERNET
ADDED from /home/votarytech/AndroidStudioProjects/JioSample/app/src/main/AndroidManifest.xml:4:1-62
	android:name
		ADDED from /home/votarytech/AndroidStudioProjects/JioSample/app/src/main/AndroidManifest.xml:4:18-60
application
ADDED from /home/votarytech/AndroidStudioProjects/JioSample/app/src/main/AndroidManifest.xml:5:5-22:19
MERGED from [com.android.support.constraint:constraint-layout:1.1.0] /home/votarytech/.android/build-cache/13fe7a62f69db46b9427f433c561c9fa8589146b/output/AndroidManifest.xml:9:5-20
MERGED from [com.github.bumptech.glide:glide:4.7.1] /home/votarytech/.android/build-cache/15db7d2e26667ecb25cc90d974f048ec89eb3c60/output/AndroidManifest.xml:11:5-20
MERGED from [com.github.bumptech.glide:gifdecoder:4.7.1] /home/votarytech/.android/build-cache/7ef7ba055f1a447b197a79781aa9429a828cf98a/output/AndroidManifest.xml:9:5-20
	android:label
		ADDED from /home/votarytech/AndroidStudioProjects/JioSample/app/src/main/AndroidManifest.xml:8:9-41
	android:supportsRtl
		ADDED from /home/votarytech/AndroidStudioProjects/JioSample/app/src/main/AndroidManifest.xml:10:9-35
	android:roundIcon
		ADDED from /home/votarytech/AndroidStudioProjects/JioSample/app/src/main/AndroidManifest.xml:9:9-54
	android:allowBackup
		ADDED from /home/votarytech/AndroidStudioProjects/JioSample/app/src/main/AndroidManifest.xml:6:9-35
	android:icon
		ADDED from /home/votarytech/AndroidStudioProjects/JioSample/app/src/main/AndroidManifest.xml:7:9-43
	android:theme
		ADDED from /home/votarytech/AndroidStudioProjects/JioSample/app/src/main/AndroidManifest.xml:11:9-40
activity#com.sample.ankit.jiogames.activities.MainActivity
ADDED from /home/votarytech/AndroidStudioProjects/JioSample/app/src/main/AndroidManifest.xml:12:9-21:20
	android:label
		ADDED from /home/votarytech/AndroidStudioProjects/JioSample/app/src/main/AndroidManifest.xml:14:13-45
	android:theme
		ADDED from /home/votarytech/AndroidStudioProjects/JioSample/app/src/main/AndroidManifest.xml:15:13-56
	android:name
		ADDED from /home/votarytech/AndroidStudioProjects/JioSample/app/src/main/AndroidManifest.xml:13:13-52
intent-filter#android.intent.action.MAIN+android.intent.category.LAUNCHER
ADDED from /home/votarytech/AndroidStudioProjects/JioSample/app/src/main/AndroidManifest.xml:16:13-20:29
action#android.intent.action.MAIN
ADDED from /home/votarytech/AndroidStudioProjects/JioSample/app/src/main/AndroidManifest.xml:17:17-69
	android:name
		ADDED from /home/votarytech/AndroidStudioProjects/JioSample/app/src/main/AndroidManifest.xml:17:25-66
category#android.intent.category.LAUNCHER
ADDED from /home/votarytech/AndroidStudioProjects/JioSample/app/src/main/AndroidManifest.xml:19:17-77
	android:name
		ADDED from /home/votarytech/AndroidStudioProjects/JioSample/app/src/main/AndroidManifest.xml:19:27-74
uses-sdk
INJECTED from /home/votarytech/AndroidStudioProjects/JioSample/app/src/main/AndroidManifest.xml reason: use-sdk injection requested
MERGED from [com.android.support:design:27.1.1] /home/votarytech/.android/build-cache/27dbfaa0c7ce6bdab6b407c315737f599a699726/output/AndroidManifest.xml:20:5-44
MERGED from [com.android.support:transition:27.1.1] /home/votarytech/.android/build-cache/0f405da0b8508a488efb6e13bb4fde1f10c5fb48/output/AndroidManifest.xml:20:5-44
MERGED from [com.android.support.constraint:constraint-layout:1.1.0] /home/votarytech/.android/build-cache/13fe7a62f69db46b9427f433c561c9fa8589146b/output/AndroidManifest.xml:5:5-7:41
MERGED from [com.github.bumptech.glide:glide:4.7.1] /home/votarytech/.android/build-cache/15db7d2e26667ecb25cc90d974f048ec89eb3c60/output/AndroidManifest.xml:7:5-9:41
MERGED from [com.github.bumptech.glide:gifdecoder:4.7.1] /home/votarytech/.android/build-cache/7ef7ba055f1a447b197a79781aa9429a828cf98a/output/AndroidManifest.xml:5:5-7:41
MERGED from [com.makeramen:roundedimageview:2.3.0] /home/votarytech/.android/build-cache/55d1d5d14d9bdf019cd935a611cbe5dfab386771/output/AndroidManifest.xml:7:5-43
MERGED from [com.yarolegovich:discrete-scrollview:1.4.7] /home/votarytech/.android/build-cache/bd91024fd7841d7e647511ffab97c77b117e6490/output/AndroidManifest.xml:8:5-10:41
MERGED from [com.android.support:appcompat-v7:27.1.1] /home/votarytech/.android/build-cache/0c4791688e8dff42b69a22bd78a27c007629ee67/output/AndroidManifest.xml:20:5-44
MERGED from [com.android.support:animated-vector-drawable:27.1.1] /home/votarytech/.android/build-cache/ea27232a168212d3a6ce3348b40cad6b2db17412/output/AndroidManifest.xml:20:5-44
MERGED from [com.android.support:support-vector-drawable:27.1.1] /home/votarytech/.android/build-cache/12b0f49bf9c60eeb4a62536b128cbc653931fd1b/output/AndroidManifest.xml:20:5-44
MERGED from [com.android.support:recyclerview-v7:27.1.1] /home/votarytech/.android/build-cache/1209fa58dfcc970a2e4fdc29bd0b890941fab84f/output/AndroidManifest.xml:20:5-44
MERGED from [com.android.databinding:adapters:1.3.1] /home/votarytech/.android/build-cache/b350fdc8e9a25c204baa75729ce1a38b5f252f4d/output/AndroidManifest.xml:22:5-24:41
MERGED from [com.android.databinding:library:1.3.1] /home/votarytech/.android/build-cache/4bc9528060c98b887f52f8217b1e7ce445b9d0cf/output/AndroidManifest.xml:22:5-24:41
MERGED from [com.android.support:support-v4:27.1.1] /home/votarytech/.android/build-cache/e8dde4cd3fa81d1445b60896b47b214efb737d1c/output/AndroidManifest.xml:20:5-44
MERGED from [com.android.support:support-media-compat:27.1.1] /home/votarytech/.android/build-cache/ee4fedc73ba5df0676be1eb089cc378ad8a3049b/output/AndroidManifest.xml:20:5-44
MERGED from [com.android.support:support-fragment:27.1.1] /home/votarytech/.android/build-cache/14285a18d672032d63f8f67c79fa995dcea09396/output/AndroidManifest.xml:20:5-44
MERGED from [com.android.support:support-core-ui:27.1.1] /home/votarytech/.android/build-cache/b1621ec129eb94f925521058eed075fe9ebabd8c/output/AndroidManifest.xml:20:5-44
MERGED from [com.android.support:support-core-utils:27.1.1] /home/votarytech/.android/build-cache/34d5e99b9b9904c6df175231bef6852860281260/output/AndroidManifest.xml:20:5-44
MERGED from [com.android.support:support-compat:27.1.1] /home/votarytech/.android/build-cache/dbfb2dc61a787265bc4257a11ad153aec8a08e35/output/AndroidManifest.xml:20:5-44
MERGED from [android.arch.lifecycle:runtime:1.1.0] /home/votarytech/.android/build-cache/a342c4aa37a098c3c785a9c52ee8f6d3fb73e4f6/output/AndroidManifest.xml:20:5-44
MERGED from [android.arch.lifecycle:livedata-core:1.1.0] /home/votarytech/.android/build-cache/bf4d8347a2d359181b701bf84f9de17cd37458a7/output/AndroidManifest.xml:20:5-44
MERGED from [android.arch.core:runtime:1.1.0] /home/votarytech/.android/build-cache/01e72ec38de7ada27fa7d802fd3ca044799df580/output/AndroidManifest.xml:20:5-44
MERGED from [android.arch.lifecycle:viewmodel:1.1.0] /home/votarytech/.android/build-cache/787981cd378d59501c757847ba613a44bb1276c5/output/AndroidManifest.xml:20:5-44
	android:targetSdkVersion
		INJECTED from /home/votarytech/AndroidStudioProjects/JioSample/app/src/main/AndroidManifest.xml
		INJECTED from /home/votarytech/AndroidStudioProjects/JioSample/app/src/main/AndroidManifest.xml
	android:minSdkVersion
		INJECTED from /home/votarytech/AndroidStudioProjects/JioSample/app/src/main/AndroidManifest.xml
		INJECTED from /home/votarytech/AndroidStudioProjects/JioSample/app/src/main/AndroidManifest.xml
